<?xml version="1.0" encoding="UTF-8" standalone="no"?>
<svg
   width="288.91528"
   height="268.07834"
   version="1.1"
   id="svg39"
   sodipodi:docname="rotation.svg"
   inkscape:version="1.1.2 (0a00cf5339, 2022-02-04)"
   xmlns:inkscape="http://www.inkscape.org/namespaces/inkscape"
   xmlns:sodipodi="http://sodipodi.sourceforge.net/DTD/sodipodi-0.dtd"
   xmlns="http://www.w3.org/2000/svg"
   xmlns:svg="http://www.w3.org/2000/svg">
  <sodipodi:namedview
     id="namedview41"
     pagecolor="#ffffff"
     bordercolor="#666666"
     borderopacity="1.0"
     inkscape:pageshadow="2"
     inkscape:pageopacity="0.0"
     inkscape:pagecheckerboard="0"
     showgrid="false"
     inkscape:snap-grids="true"
     inkscape:zoom="1.1601562"
     inkscape:cx="102.57239"
     inkscape:cy="231.86533"
     inkscape:window-width="1680"
     inkscape:window-height="1001"
     inkscape:window-x="0"
     inkscape:window-y="25"
     inkscape:window-maximized="1"
     inkscape:current-layer="g29"
     fit-margin-top="0"
     fit-margin-left="0"
     fit-margin-right="0"
     fit-margin-bottom="0" />
  <defs
     id="defs11">
    <marker
       style="overflow:visible"
       id="Arrow1Mend"
       refX="0"
       refY="0"
       orient="auto"
       inkscape:stockid="Arrow1Mend"
       inkscape:isstock="true">
      <path
         transform="matrix(-0.4,0,0,-0.4,-4,0)"
         style="fill:context-stroke;fill-rule:evenodd;stroke:context-stroke;stroke-width:1pt"
         d="M 0,0 5,-5 -12.5,0 5,5 Z"
         id="path5769" />
    </marker>
    <marker
       style="overflow:visible"
       id="Arrow1Mstart"
       refX="0"
       refY="0"
       orient="auto"
       inkscape:stockid="Arrow1Mstart"
       inkscape:isstock="true">
      <path
         transform="matrix(0.4,0,0,0.4,4,0)"
         style="fill:context-stroke;fill-rule:evenodd;stroke:context-stroke;stroke-width:1pt"
         d="M 0,0 5,-5 -12.5,0 5,5 Z"
         id="path5766" />
    </marker>
    <marker
       orient="auto"
       refY="0"
       refX="0"
       id="InfiniteLineEnd"
       inkscape:stockid="InfiniteLineEnd"
       style="overflow:visible"
       inkscape:isstock="true">
      <g
         style="fill:context-stroke"
         id="g4482">
        <circle
           cx="3"
           cy="0"
           r="0.80000001"
           id="circle4476" />
        <circle
           cx="6.5"
           cy="0"
           r="0.80000001"
           id="circle4478" />
        <circle
           cx="10"
           cy="0"
           r="0.80000001"
           id="circle4480" />
      </g>
    </marker>
    <marker
       inkscape:stockid="DistanceStart"
       orient="auto"
       refY="0"
       refX="0"
       id="DistanceStart"
       style="overflow:visible"
       inkscape:isstock="true">
      <g
         id="g2300">
        <path
           id="path2306"
           d="M 0,0 H 2"
           style="fill:none;stroke:context-fill;stroke-width:1.15;stroke-linecap:square" />
        <path
           id="path2302"
           d="M 0,0 13,4 9,0 13,-4 Z"
           style="fill:context-stroke;fill-rule:evenodd;stroke:none" />
        <path
           id="path2304"
           d="M 0,-4 V 40"
           style="fill:none;stroke:context-stroke;stroke-width:1;stroke-linecap:square" />
      </g>
    </marker>
    <marker
       id="tipBlue"
       style="overflow:visible"
       orient="auto">
      <path
         style="fill:#20bbe8;stroke:#20bbe8;stroke-width:0.5px;stroke-linejoin:round"
         d="M -4,-2 V 2 L 1,0 Z"
         id="path2" />
    </marker>
    <marker
       id="tipRed"
       style="overflow:visible"
       orient="auto">
      <path
         style="fill:#f11500;stroke:#f11500;stroke-width:0.5px;stroke-linejoin:round"
         d="M -4,-2 V 2 L 1,0 Z"
         id="path5" />
    </marker>
    <marker
       id="tipBlack"
       style="overflow:visible"
       orient="auto">
      <path
         style="fill:#000000"
         d="M -4,-2 V 2 L 1,0 Z"
         id="path8" />
    </marker>
    <marker
       id="tipRed-5"
       style="overflow:visible"
       orient="auto">
      <path
         style="fill:#f11500;stroke:#f11500;stroke-width:0.5px;stroke-linejoin:round"
         d="M -4,-2 V 2 L 1,0 Z"
         id="path5-4" />
    </marker>
    <marker
       id="tipRed-8"
       style="overflow:visible"
       orient="auto">
      <path
         style="fill:#f11500;stroke:#f11500;stroke-width:0.5px;stroke-linejoin:round"
         d="M -4,-2 V 2 L 1,0 Z"
         id="path5-6" />
    </marker>
    <marker
       orient="auto"
       refY="0"
       refX="0"
       id="InfiniteLineEnd-0"
       inkscape:stockid="InfiniteLineEnd"
       style="overflow:visible"
       inkscape:isstock="true">
      <g
         style="fill:context-stroke"
         id="g4482-3">
        <circle
           cx="3"
           cy="0"
           r="0.80000001"
           id="circle4476-4" />
        <circle
           cx="6.5"
           cy="0"
           r="0.80000001"
           id="circle4478-9" />
        <circle
           cx="10"
           cy="0"
           r="0.80000001"
           id="circle4480-8" />
      </g>
    </marker>
    <g
       id="g1365">
      <symbol
         overflow="visible"
         id="symbol9662">
        <path
           style="stroke:none"
           d=""
           id="path7917" />
      </symbol>
      <symbol
         overflow="visible"
         id="symbol9348">
        <path
           style="stroke:none"
           d="m 4.53125,-4.984375 c 0,-0.65625 -0.171875,-2.046875 -1.1875,-2.046875 -1.390625,0 -2.921875,2.8125 -2.921875,5.09375 0,0.9375 0.28125,2.046875 1.1875,2.046875 1.40625,0 2.921875,-2.859375 2.921875,-5.09375 z M 1.46875,-3.625 C 1.640625,-4.25 1.84375,-5.046875 2.25,-5.765625 2.515625,-6.25 2.875,-6.8125 3.328125,-6.8125 c 0.484375,0 0.546875,0.640625 0.546875,1.203125 0,0.5 -0.078125,1 -0.3125,1.984375 z m 2,0.328125 C 3.359375,-2.84375 3.15625,-2 2.765625,-1.28125 c -0.34375,0.6875 -0.71875,1.171875 -1.15625,1.171875 -0.328125,0 -0.53125,-0.296875 -0.53125,-1.21875 0,-0.421875 0.0625,-1 0.3125,-1.96875 z m 0,0"
           id="path2903" />
      </symbol>
    </g>
    <g
       id="g3778">
      <symbol
         overflow="visible"
         id="symbol305">
        <path
           style="stroke:none"
           d=""
           id="path7741" />
      </symbol>
      <symbol
         overflow="visible"
         id="symbol4556">
        <path
           style="stroke:none"
           d="m 4.53125,-4.984375 c 0,-0.65625 -0.171875,-2.046875 -1.1875,-2.046875 -1.390625,0 -2.921875,2.8125 -2.921875,5.09375 0,0.9375 0.28125,2.046875 1.1875,2.046875 1.40625,0 2.921875,-2.859375 2.921875,-5.09375 z M 1.46875,-3.625 C 1.640625,-4.25 1.84375,-5.046875 2.25,-5.765625 2.515625,-6.25 2.875,-6.8125 3.328125,-6.8125 c 0.484375,0 0.546875,0.640625 0.546875,1.203125 0,0.5 -0.078125,1 -0.3125,1.984375 z m 2,0.328125 C 3.359375,-2.84375 3.15625,-2 2.765625,-1.28125 c -0.34375,0.6875 -0.71875,1.171875 -1.15625,1.171875 -0.328125,0 -0.53125,-0.296875 -0.53125,-1.21875 0,-0.421875 0.0625,-1 0.3125,-1.96875 z m 0,0"
           id="path33" />
      </symbol>
    </g>
    <g
       id="g3435">
      <symbol
         overflow="visible"
         id="symbol7904">
        <path
           style="stroke:none"
           d=""
           id="path8390" />
      </symbol>
      <symbol
         overflow="visible"
         id="symbol2064">
        <path
           style="stroke:none"
           d="m 4.53125,-4.984375 c 0,-0.65625 -0.171875,-2.046875 -1.1875,-2.046875 -1.390625,0 -2.921875,2.8125 -2.921875,5.09375 0,0.9375 0.28125,2.046875 1.1875,2.046875 1.40625,0 2.921875,-2.859375 2.921875,-5.09375 z M 1.46875,-3.625 C 1.640625,-4.25 1.84375,-5.046875 2.25,-5.765625 2.515625,-6.25 2.875,-6.8125 3.328125,-6.8125 c 0.484375,0 0.546875,0.640625 0.546875,1.203125 0,0.5 -0.078125,1 -0.3125,1.984375 z m 2,0.328125 C 3.359375,-2.84375 3.15625,-2 2.765625,-1.28125 c -0.34375,0.6875 -0.71875,1.171875 -1.15625,1.171875 -0.328125,0 -0.53125,-0.296875 -0.53125,-1.21875 0,-0.421875 0.0625,-1 0.3125,-1.96875 z m 0,0"
           id="path9001" />
      </symbol>
    </g>
    <symbol
       overflow="visible"
       id="symbol14615">
      <path
         style="stroke:none"
         d="m 4.53125,-4.984375 c 0,-0.65625 -0.171875,-2.046875 -1.1875,-2.046875 -1.390625,0 -2.921875,2.8125 -2.921875,5.09375 0,0.9375 0.28125,2.046875 1.1875,2.046875 1.40625,0 2.921875,-2.859375 2.921875,-5.09375 z M 1.46875,-3.625 C 1.640625,-4.25 1.84375,-5.046875 2.25,-5.765625 2.515625,-6.25 2.875,-6.8125 3.328125,-6.8125 c 0.484375,0 0.546875,0.640625 0.546875,1.203125 0,0.5 -0.078125,1 -0.3125,1.984375 z m 2,0.328125 C 3.359375,-2.84375 3.15625,-2 2.765625,-1.28125 c -0.34375,0.6875 -0.71875,1.171875 -1.15625,1.171875 -0.328125,0 -0.53125,-0.296875 -0.53125,-1.21875 0,-0.421875 0.0625,-1 0.3125,-1.96875 z m 0,0"
         id="path9001-0" />
    </symbol>
  </defs>
  <style
     type="text/css"
     id="style13">
		.blue{stroke-width:8px;stroke:#20bbe8;marker-end:url(#tipBlue);}
		.red{stroke-width:8px;stroke:#f11500;marker-end:url(#tipRed);}
		.black{stroke-width:4px;stroke:#000;marker-end:url(#tipBlack);}
	</style>
  <g
     class="red"
     id="g29"
     transform="translate(-182.20351,-24.26983)">
    <path
       d="m 227.28956,256 2.40151,-199.561964 0.26678,-22.169124"
       id="path23"
       sodipodi:nodetypes="ccc" />
    <path
       d="m 223.17372,255.48288 237.94676,4.35595"
       id="path27"
       sodipodi:nodetypes="cc"
       style="fill:#ff0000" />
    <path
       d="M 227.20024,254.5824 408.83439,144.25193"
       id="path27-1"
       sodipodi:nodetypes="cc"
       style="fill:#0000ff;stroke:#0000ff;stroke-width:7.49639px" />
    <path
       d="M 230.33727,253.84877 352.70566,80.096778"
       id="path27-1-1"
       sodipodi:nodetypes="cc"
       style="fill:#0000ff;stroke:#0000ff;stroke-width:7.49639px" />
    <path
       style="fill:none;stroke:#000000;stroke-width:4.2;stroke-miterlimit:4;stroke-dasharray:none;stroke-opacity:1;marker-end:url(#InfiniteLineEnd)"
       id="path4099"
       sodipodi:type="arc"
       sodipodi:cx="227.28957"
       sodipodi:cy="256"
       sodipodi:rx="39.460964"
       sodipodi:ry="46.229561"
       sodipodi:start="5.8236028"
       sodipodi:end="0.015840711"
       sodipodi:arc-type="slice"
       d="m 262.65597,235.49377 a 39.460964,46.229561 0 0 1 4.08961,21.23851 L 227.28957,256 Z" />
    <path
       style="fill:none;stroke:#000000;stroke-width:4.2;stroke-miterlimit:4;stroke-dasharray:none;stroke-opacity:1;marker-end:url(#InfiniteLineEnd-0)"
       id="path4099-0"
       sodipodi:type="arc"
       sodipodi:cx="226.47411"
       sodipodi:cy="255.38086"
       sodipodi:rx="95.664001"
       sodipodi:ry="118.32971"
       sodipodi:start="5.443576"
       sodipodi:end="5.8365395"
       sodipodi:arc-type="slice"
       d="m 290.3541,167.29832 a 95.664001,118.32971 0 0 1 22.39946,36.97087 l -86.27945,51.11167 z" />
    <text
       xml:space="preserve"
       style="font-size:40px;line-height:1.25;font-family:'Noto Sans Shavian';-inkscape-font-specification:'Noto Sans Shavian'"
       x="71.784355"
       y="118.28025"
       id="text11946"><tspan
         sodipodi:role="line"
         id="tspan11944"
         x="71.784355"
         y="118.28025" /></text>
    <text
       xml:space="preserve"
       style="font-size:40px;line-height:1.25;font-family:'Noto Sans Shavian';-inkscape-font-specification:'Noto Sans Shavian';stroke-width:0.3;stroke-miterlimit:4;stroke-dasharray:none"
       x="272.53836"
       y="254.85385"
       id="text25098"><tspan
         sodipodi:role="line"
         id="tspan25096"
         x="272.53836"
         y="254.85385"
         style="stroke:#000000;stroke-width:0.3;stroke-miterlimit:4;stroke-dasharray:none;stroke-opacity:1">θ</tspan></text>
    <path
       style="fill:none;stroke:#000000;stroke-width:1;stroke-linecap:butt;stroke-linejoin:miter;stroke-miterlimit:4;stroke-dasharray:6, 6;stroke-dashoffset:0;stroke-opacity:1"
       d="M 408.83439,257.52936 V 144.25193 H 229.97301"
       id="path1333" />
    <text
       xml:space="preserve"
       style="font-size:40px;line-height:1.25;font-family:'Noto Sans Shavian';-inkscape-font-specification:'Noto Sans Shavian';stroke:#000000;stroke-width:0.5;stroke-miterlimit:4;stroke-dasharray:none;stroke-opacity:1"
       x="387.44601"
       y="292.09818"
       id="text4267"><tspan
         sodipodi:role="line"
         id="tspan4265"
         x="387.44601"
         y="292.09818">x</tspan></text>
    <text
       xml:space="preserve"
       style="font-size:40px;line-height:1.25;font-family:'Noto Sans Shavian';-inkscape-font-specification:'Noto Sans Shavian';stroke:#000000;stroke-width:0.5;stroke-miterlimit:4;stroke-dasharray:none;stroke-opacity:1"
       x="192.84654"
       y="155.53731"
       id="text4267-3"><tspan
         sodipodi:role="line"
         id="tspan4265-6"
         x="192.84654"
         y="155.53731">y</tspan></text>
    <text
       xml:space="preserve"
       style="font-size:40px;line-height:1.25;font-family:'Noto Sans Shavian';-inkscape-font-specification:'Noto Sans Shavian';stroke:#000000;stroke-width:0.5;stroke-miterlimit:4;stroke-dasharray:none;stroke-opacity:1"
       x="425.47491"
       y="143.0211"
       id="text4267-7"><tspan
         sodipodi:role="line"
         id="tspan4265-5"
         x="425.47491"
         y="143.0211">M</tspan><tspan
         sodipodi:role="line"
         x="425.47491"
         y="194.02548"
         id="tspan23795" /></text>
    <text
       xml:space="preserve"
       style="font-size:40px;line-height:1.25;font-family:'Noto Sans Shavian';-inkscape-font-specification:'Noto Sans Shavian';stroke:#000000;stroke-width:0.5;stroke-miterlimit:4;stroke-dasharray:none;stroke-opacity:1"
       x="180.20741"
       y="267.78595"
       id="text4267-7-3"><tspan
         sodipodi:role="line"
         id="tspan4265-5-6"
         x="180.20741"
         y="267.78595">O</tspan><tspan
         sodipodi:role="line"
         x="180.20741"
         y="318.79034"
         id="tspan23795-7" /></text>
    <text
       xml:space="preserve"
       style="font-size:40px;line-height:1.25;font-family:'Noto Sans Shavian';-inkscape-font-specification:'Noto Sans Shavian';stroke:#000000;stroke-width:0.5;stroke-miterlimit:4;stroke-dasharray:none;stroke-opacity:1"
       x="353.76971"
       y="62.122635"
       id="text4267-7-5"><tspan
         sodipodi:role="line"
         id="tspan4265-5-3"
         x="353.76971"
         y="62.122635">M'</tspan><tspan
         sodipodi:role="line"
         x="353.76971"
         y="113.12701"
         id="tspan23795-5" /></text>
    <text
       xml:space="preserve"
       style="font-size:40px;line-height:1.25;font-family:'Noto Sans Shavian';-inkscape-font-specification:'Noto Sans Shavian';stroke:#000000;stroke-width:0.5;stroke-miterlimit:4;stroke-dasharray:none;stroke-opacity:1"
       x="357.48947"
       y="211.90767"
       id="text4267-36"><tspan
         sodipodi:role="line"
         id="tspan4265-7"
         x="357.48947"
         y="211.90767">r</tspan></text>
    <text
       xml:space="preserve"
       style="font-size:40px;line-height:1.25;font-family:'Noto Sans Shavian';-inkscape-font-specification:'Noto Sans Shavian';stroke:#000000;stroke-width:0.3;stroke-miterlimit:4;stroke-dasharray:none;stroke-opacity:1"
       x="303.27985"
       y="178.98508"
       id="text36328-3"><tspan
         sodipodi:role="line"
         id="tspan36326-6"
         x="303.27985"
         y="178.98508">ϕ</tspan></text>
  </g>
</svg>
